APScheduler==2.1.2
CairoSVG==1.0.15
Flask==0.10.1
Flask-API==0.6.3
Flask-APScheduler==1.3.7
Flask-Cors==2.0.0
Flask-Migrate==1.4.0
Flask-RESTful==0.3.3
Flask-SQLAlchemy==2.0
Flask-Script==2.0.5
Flask-WTF==0.11
Jinja2==2.7.3
Mako==1.0.1
MarkupSafe==0.23
Pyphen==0.9.1
SQLAlchemy==1.0.6
WTForms==2.0.2
WeasyPrint==0.23
Werkzeug==0.10.4
alembic==0.7.6
amqp==1.4.6
aniso8601==1.0.0
anyjson==0.3.3
argparse==1.2.1
billiard==3.3.0.20
blinker==1.2
boto==2.38.0
cairocffi==0.7.1
celery==3.1.18
celery-with-redis==3.0
cffi==1.1.2
colorama==0.3.7
crontab==0.20.5
cssselect==0.9.1
dicttoxml==1.6.6
docutils==0.12
futures==3.0.3
geopy==1.11.0
google-api-python-client==1.4.0
googlemaps==2.2
html5lib==0.999999
httplib2==0.9.1
ipython==3.2.1
itsdangerous==0.24
kombu==3.0.24
lockfile==0.12.2
lxml==3.4.4
oauth2client==1.4.11
psycopg2==2.6
pyasn1==0.1.7
pyasn1-modules==0.0.5
pycparser==2.14
pycrypto==2.6.1
pymongo==2.7.2
python-daemon==2.1.1
python-dateutil==2.4.2
pytz==2015.4
raven==5.7.2
redis==2.10.3
requests==2.7.0
requests-futures==0.9.5
rsa==3.1.4
sendgrid==1.4.0
simplejson==3.7.3
six==1.9.0
smtpapi==0.2.0
tinycss==0.3
tzlocal==1.2.2
uritemplate==0.6
urllib3==1.14
virtualenv==13.1.0
wheel==0.24.0
wsgiref==0.1.2